[
[7,1,0,3,7,9,0,4,0,3]
[0,2,2,0,9,4,5,5,4,1]
[5,5,0,9,4,8,5,8,2,6]
[3,7,0,9,5,4,7,1,6,7]
[7,8,9,7,3,0,7,0,3,5]
[3,4,6,5,3,7,4,3,4,5]
[7,2,4,9,9,8,6,7,5,8]
[1,6,2,5,9,2,1,5,8,5]
[9,1,4,0,9,5,0,2,4,9]
[1,2,8,6,3,1,8,2,3,3]]